%YAML 1.1
%TAG !u! tag:unity3d.com,2011:
--- !u!74 &7400000
AnimationClip:
  m_ObjectHideFlags: 0
  m_PrefabParentObject: {fileID: 0}
  m_PrefabInternal: {fileID: 0}
  m_Name: BullyFish_belly_01
  serializedVersion: 6
  m_Legacy: 0
  m_Compressed: 0
  m_UseHighQualityCurve: 1
  m_RotationCurves: []
  m_CompressedRotationCurves: []
  m_EulerCurves: []
  m_PositionCurves:
  - curve:
      serializedVersion: 2
      m_Curve:
      - serializedVersion: 2
        time: 0
        value: {x: 0.00010198486, y: 0.0074021975, z: 4.090847e-17}
        inSlope: {x: -0.00020339774, y: 0.0005043079, z: 9.287368e-18}
        outSlope: {x: -0.00020339774, y: 0.0005043079, z: 9.287368e-18}
        tangentMode: 0
      - serializedVersion: 2
        time: 1.1666666
        value: {x: 0.000009196523, y: 0.00819085, z: 4.7302436e-17}
        inSlope: {x: -0.0002118793, y: 0.000804435, z: 2.5474216e-18}
        outSlope: {x: -0.0002118793, y: 0.000804435, z: 2.5474216e-18}
        tangentMode: 0
      - serializedVersion: 2
        time: 1.25
        value: {x: 0.0000002891717, y: 0.008258375, z: 4.750283e-17}
        inSlope: {x: -0.00021574674, y: 0.000815947, z: 2.2665936e-18}
        outSlope: {x: -0.00021574674, y: 0.000815947, z: 2.2665936e-18}
        tangentMode: 0
      - serializedVersion: 2
        time: 1.375
        value: {x: -0.000014879965, y: 0.008361324, z: 4.7762335e-17}
        inSlope: {x: -0.0003940821, y: 0.00083073333, z: 1.895501e-18}
        outSlope: {x: -0.0003940821, y: 0.00083073333, z: 1.895501e-18}
        tangentMode: 0
      - serializedVersion: 2
        time: 2.0833333
        value: {x: -0.00013327366, y: 0.008965159, z: 4.864874e-17}
        inSlope: {x: -0.00042003032, y: 0.0008582754, z: 9.293561e-19}
        outSlope: {x: -0.00042003032, y: 0.0008582754, z: 9.293561e-19}
        tangentMode: 0
      - serializedVersion: 2
        time: 2.5
        value: {x: -0.00020310223, y: 0.009317992, z: 4.9082413e-17}
        inSlope: {x: -0.00041630585, y: 0.00082981045, z: 1.2637219e-18}
        outSlope: {x: -0.00041630585, y: 0.00082981045, z: 1.2637219e-18}
        tangentMode: 0
      - serializedVersion: 2
        time: 2.9166667
        value: {x: -0.00026894442, y: 0.009652073, z: 4.979471e-17}
        inSlope: {x: -0.00037464197, y: 0.0007682591, z: 2.2667429e-18}
        outSlope: {x: -0.00037464197, y: 0.0007682591, z: 2.2667429e-18}
        tangentMode: 0
      - serializedVersion: 2
        time: 3.75
        value: {x: -0.0003418745, y: 0.010208828, z: 5.3169595e-17}
        inSlope: {x: -0.00015677378, y: 0.0005458978, z: 6.278751e-18}
        outSlope: {x: -0.00015677378, y: 0.0005458978, z: 6.278751e-18}
        tangentMode: 0
      - serializedVersion: 2
        time: 4.1666665
        value: {x: -0.00036882865, y: 0.010403932, z: 5.638939e-17}
        inSlope: {x: -0.00017655245, y: 0.0003850883, z: 9.287736e-18}
        outSlope: {x: -0.00017655245, y: 0.0003850883, z: 9.287736e-18}
        tangentMode: 0
      m_PreInfinity: 2
      m_PostInfinity: 2
      m_RotationOrder: 4
    path: Fish1_03:Fish1_02:rig/Fish1_03:Fish1_02:jnt_org/Fish1_03:Fish1_02:chain_C0_jnt_org/Fish1_03:Fish1_02:chain_C0_0_jnt/Fish1_03:Fish1_02:chain_C5_0_jnt
  m_ScaleCurves: []
  m_FloatCurves: []
  m_PPtrCurves: []
  m_SampleRate: 24
  m_WrapMode: 0
  m_Bounds:
    m_Center: {x: 0, y: 0, z: 0}
    m_Extent: {x: 0, y: 0, z: 0}
  m_ClipBindingConstant:
    genericBindings:
    - serializedVersion: 2
      path: 455042406
      attribute: 1
      script: {fileID: 0}
      typeID: 4
      customType: 0
      isPPtrCurve: 0
    pptrCurveMapping: []
  m_AnimationClipSettings:
    serializedVersion: 2
    m_AdditiveReferencePoseClip: {fileID: 0}
    m_AdditiveReferencePoseTime: 0
    m_StartTime: 0
    m_StopTime: 4.1666665
    m_OrientationOffsetY: 0
    m_Level: 0
    m_CycleOffset: 0
    m_HasAdditiveReferencePose: 0
    m_LoopTime: 0
    m_LoopBlend: 0
    m_LoopBlendOrientation: 0
    m_LoopBlendPositionY: 0
    m_LoopBlendPositionXZ: 0
    m_KeepOriginalOrientation: 0
    m_KeepOriginalPositionY: 1
    m_KeepOriginalPositionXZ: 0
    m_HeightFromFeet: 0
    m_Mirror: 0
  m_EditorCurves:
  - curve:
      serializedVersion: 2
      m_Curve:
      - serializedVersion: 2
        time: 0
        value: 0.00010198486
        inSlope: -0.00020339774
        outSlope: -0.00020339774
        tangentMode: 0
      - serializedVersion: 2
        time: 1.1666666
        value: 0.000009196523
        inSlope: -0.0002118793
        outSlope: -0.0002118793
        tangentMode: 0
      - serializedVersion: 2
        time: 1.25
        value: 0.0000002891717
        inSlope: -0.00021574674
        outSlope: -0.00021574674
        tangentMode: 0
      - serializedVersion: 2
        time: 1.375
        value: -0.000014879965
        inSlope: -0.0003940821
        outSlope: -0.0003940821
        tangentMode: 0
      - serializedVersion: 2
        time: 2.0833333
        value: -0.00013327366
        inSlope: -0.00042003032
        outSlope: -0.00042003032
        tangentMode: 0
      - serializedVersion: 2
        time: 2.5
        value: -0.00020310223
        inSlope: -0.00041630585
        outSlope: -0.00041630585
        tangentMode: 0
      - serializedVersion: 2
        time: 2.9166667
        value: -0.00026894442
        inSlope: -0.00037464197
        outSlope: -0.00037464197
        tangentMode: 0
      - serializedVersion: 2
        time: 3.75
        value: -0.0003418745
        inSlope: -0.00015677378
        outSlope: -0.00015677378
        tangentMode: 0
      - serializedVersion: 2
        time: 4.1666665
        value: -0.00036882865
        inSlope: -0.00017655245
        outSlope: -0.00017655245
        tangentMode: 0
      m_PreInfinity: 2
      m_PostInfinity: 2
      m_RotationOrder: 4
    attribute: m_LocalPosition.x
    path: Fish1_03:Fish1_02:rig/Fish1_03:Fish1_02:jnt_org/Fish1_03:Fish1_02:chain_C0_jnt_org/Fish1_03:Fish1_02:chain_C0_0_jnt/Fish1_03:Fish1_02:chain_C5_0_jnt
    classID: 4
    script: {fileID: 0}
  - curve:
      serializedVersion: 2
      m_Curve:
      - serializedVersion: 2
        time: 0
        value: 0.0074021975
        inSlope: 0.0005043079
        outSlope: 0.0005043079
        tangentMode: 0
      - serializedVersion: 2
        time: 4.1666665
        value: 0.010403932
        inSlope: 0.0003850883
        outSlope: 0.0003850883
        tangentMode: 0
      m_PreInfinity: 2
      m_PostInfinity: 2
      m_RotationOrder: 4
    attribute: m_LocalPosition.y
    path: Fish1_03:Fish1_02:rig/Fish1_03:Fish1_02:jnt_org/Fish1_03:Fish1_02:chain_C0_jnt_org/Fish1_03:Fish1_02:chain_C0_0_jnt/Fish1_03:Fish1_02:chain_C5_0_jnt
    classID: 4
    script: {fileID: 0}
  - curve:
      serializedVersion: 2
      m_Curve:
      - serializedVersion: 2
        time: 0
        value: 4.090847e-17
        inSlope: 9.287368e-18
        outSlope: 9.287368e-18
        tangentMode: 0
      - serializedVersion: 2
        time: 4.1666665
        value: 5.638939e-17
        inSlope: 9.287736e-18
        outSlope: 9.287736e-18
        tangentMode: 0
      m_PreInfinity: 2
      m_PostInfinity: 2
      m_RotationOrder: 4
    attribute: m_LocalPosition.z
    path: Fish1_03:Fish1_02:rig/Fish1_03:Fish1_02:jnt_org/Fish1_03:Fish1_02:chain_C0_jnt_org/Fish1_03:Fish1_02:chain_C0_0_jnt/Fish1_03:Fish1_02:chain_C5_0_jnt
    classID: 4
    script: {fileID: 0}
  m_EulerEditorCurves: []
  m_HasGenericRootTransform: 0
  m_HasMotionFloatCurves: 0
  m_GenerateMotionCurves: 0
  m_Events: []
